\relax 
\FN@pp@footnotehinttrue 
\@writefile{toc}{\contentsline {chapter}{\numberline {3}Theory, Concepts and Architecture ...}{4}{chapter.3}}
\@writefile{lof}{\addvspace {10\p@ }}
\@writefile{lot}{\addvspace {10\p@ }}
\@writefile{toc}{\contentsline {section}{\numberline {3.1}Section title}{4}{section.3.1}}
\newlabel{sec:3.1}{{[section][1][3]3.1}{4}{Section title\relax }{section.3.1}{}}
\@writefile{toc}{\contentsline {subsection}{\numberline {3.1.1}first subsection}{4}{subsection.3.1.1}}
\@writefile{toc}{\contentsline {section}{\numberline {3.2}Section title}{4}{section.3.2}}
\newlabel{sec:3.2}{{[section][2][3]3.2}{4}{Section title\relax }{section.3.2}{}}
\@writefile{toc}{\contentsline {subsection}{\numberline {3.2.1}Second subsection }{4}{subsection.3.2.1}}
\citation{Top500}
\@writefile{toc}{\contentsline {section}{\numberline {3.3}Section title}{5}{section.3.3}}
\newlabel{sec:3.3}{{[section][3][3]3.3}{5}{Section title\relax }{section.3.3}{}}
\@writefile{toc}{\contentsline {section}{\numberline {3.4}Section title}{5}{section.3.4}}
\newlabel{sec:3.4}{{[section][4][3]3.4}{5}{Section title\relax }{section.3.4}{}}
\@writefile{toc}{\contentsline {section}{\numberline {3.5}Section title}{5}{section.3.5}}
\newlabel{sec:3.5}{{[section][5][3]3.5}{5}{Section title\relax }{section.3.5}{}}
\@writefile{toc}{\contentsline {section}{\numberline {3.6}Section title}{5}{section.3.6}}
\@writefile{brf}{\backcite{Top500}{{5}{[section][6][3]3.6}{section.3.6}}}
\FN@pp@footnotehinttrue 
\@setckpt{Chapter2/chapter2}{
\setcounter{page}{6}
\setcounter{equation}{0}
\setcounter{enumi}{1}
\setcounter{enumii}{0}
\setcounter{enumiii}{0}
\setcounter{enumiv}{0}
\setcounter{footnote}{0}
\setcounter{mpfootnote}{0}
\setcounter{part}{0}
\setcounter{chapter}{3}
\setcounter{section}{6}
\setcounter{subsection}{0}
\setcounter{subsubsection}{0}
\setcounter{paragraph}{0}
\setcounter{subparagraph}{0}
\setcounter{figure}{0}
\setcounter{table}{0}
\setcounter{pp@next@reset}{1}
\setcounter{@fnserial}{0}
\setcounter{NAT@ctr}{0}
\setcounter{LT@tables}{0}
\setcounter{LT@chunks}{0}
\setcounter{Item}{10}
\setcounter{Hfootnote}{0}
\setcounter{r@tfl@t}{0}
\setcounter{float@type}{4}
\setcounter{lips@count}{0}
\setcounter{section@level}{1}
}
