\relax 
\ifx\hyper@anchor\@undefined
\global \let \oldcontentsline\contentsline
\gdef \contentsline#1#2#3#4{\oldcontentsline{#1}{#2}{#3}}
\global \let \oldnewlabel\newlabel
\gdef \newlabel#1#2{\newlabelxx{#1}#2}
\gdef \newlabelxx#1#2#3#4#5#6{\oldnewlabel{#1}{{#2}{#3}}}
\AtEndDocument{\let \contentsline\oldcontentsline
\let \newlabel\oldnewlabel}
\else
\global \let \hyper@last\relax 
\fi

\@newglossary{main}{glg}{gls}{glo}
\@newglossary{acronym}{alg}{acr}{acn}
\@istfilename{UWS-PhD-thesis-template.ist}
\@glsorder{word}
\select@language{english}
\@writefile{toc}{\select@language{english}}
\@writefile{lof}{\select@language{english}}
\@writefile{lot}{\select@language{english}}
\providecommand {\FN@pp@footnotehinttrue }{}
\providecommand {\FN@pp@footnote@aux }[2]{}
\@input{Dedication/dedication.aux}
\FN@pp@footnotehinttrue 
\FN@pp@footnotehinttrue 
\@input{Acknowledgement/acknowledgement.aux}
\FN@pp@footnotehinttrue 
\@input{statement/statement.aux}
\FN@pp@footnotehinttrue 
\@input{Publications/publications.aux}
\FN@pp@footnotehinttrue 
\FN@pp@footnotehinttrue 
\FN@pp@footnotehinttrue 
\FN@pp@footnotehinttrue 
\FN@pp@footnotehinttrue 
\@input{Abbreviations/abbreviations.aux}
\@input{Abstract/abstract.aux}
\FN@pp@footnotehinttrue 
\@input{Introduction/introduction.aux}
\FN@pp@footnotehinttrue 
\FN@pp@footnotehinttrue 
\@input{Chapter1/chapter1.aux}
\FN@pp@footnotehinttrue 
\@input{Chapter2/chapter2.aux}
\FN@pp@footnotehinttrue 
\@input{Chapter3/chapter3.aux}
\FN@pp@footnotehinttrue 
\@input{Chapter4/chapter4.aux}
\FN@pp@footnotehinttrue 
\@input{Conclusions/conclusions.aux}
\FN@pp@footnotehinttrue 
\bibstyle{ieeetr}
\bibdata{References/references}
\bibcite{Top500}{{1}{}{{}}{{}}}
\bibcite{armbrust2010view}{{2}{}{{}}{{}}}
\FN@pp@footnotehinttrue 
\@writefile{toc}{\contentsline {chapter}{References}{11}{chapter*.4}}
\@writefile{toc}{\contentsline {chapter}{Bibliography}{11}{chapter*.4}}
\FN@pp@footnotehinttrue 
\@writefile{toc}{\contentsline {chapter}{Glossary}{12}{chapter*.5}}
\FN@pp@footnotehinttrue 
\@input{Appendix1/appendix1.aux}
\@input{Appendix2/appendix2.aux}
\FN@pp@footnotehinttrue 
\providecommand\NAT@force@numbers{}\NAT@force@numbers
