\relax 
\FN@pp@footnotehinttrue 
\@writefile{toc}{\contentsline {chapter}{\numberline {5}Testing and Results ... }{8}{chapter.5}}
\@writefile{lof}{\addvspace {10\p@ }}
\@writefile{lot}{\addvspace {10\p@ }}
\@writefile{toc}{\contentsline {section}{\numberline {5.1}Section title}{8}{section.5.1}}
\newlabel{sec:5.1}{{[section][1][5]5.1}{8}{Section title\relax }{section.5.1}{}}
\@writefile{toc}{\contentsline {subsection}{\numberline {5.1.1}first subsection}{8}{subsection.5.1.1}}
\@writefile{toc}{\contentsline {section}{\numberline {5.2}Section title}{8}{section.5.2}}
\newlabel{sec:5.2}{{[section][2][5]5.2}{8}{Section title\relax }{section.5.2}{}}
\@writefile{toc}{\contentsline {subsection}{\numberline {5.2.1}Second subsection }{8}{subsection.5.2.1}}
\@writefile{toc}{\contentsline {section}{\numberline {5.3}Section title}{8}{section.5.3}}
\newlabel{sec:5.3}{{[section][3][5]5.3}{8}{Section title\relax }{section.5.3}{}}
\citation{armbrust2010view}
\@writefile{toc}{\contentsline {section}{\numberline {5.4}Section title}{9}{section.5.4}}
\newlabel{sec:5.4}{{[section][4][5]5.4}{9}{Section title\relax }{section.5.4}{}}
\@writefile{toc}{\contentsline {section}{\numberline {5.5}Section title}{9}{section.5.5}}
\newlabel{sec:5.5}{{[section][5][5]5.5}{9}{Section title\relax }{section.5.5}{}}
\@writefile{brf}{\backcite{armbrust2010view}{{9}{[section][5][5]5.5}{section.5.5}}}
\FN@pp@footnotehinttrue 
\@setckpt{Chapter4/chapter4}{
\setcounter{page}{10}
\setcounter{equation}{0}
\setcounter{enumi}{1}
\setcounter{enumii}{0}
\setcounter{enumiii}{0}
\setcounter{enumiv}{0}
\setcounter{footnote}{0}
\setcounter{mpfootnote}{0}
\setcounter{part}{0}
\setcounter{chapter}{5}
\setcounter{section}{5}
\setcounter{subsection}{0}
\setcounter{subsubsection}{0}
\setcounter{paragraph}{0}
\setcounter{subparagraph}{0}
\setcounter{figure}{0}
\setcounter{table}{0}
\setcounter{pp@next@reset}{1}
\setcounter{@fnserial}{0}
\setcounter{NAT@ctr}{0}
\setcounter{LT@tables}{0}
\setcounter{LT@chunks}{0}
\setcounter{Item}{10}
\setcounter{Hfootnote}{0}
\setcounter{r@tfl@t}{0}
\setcounter{float@type}{4}
\setcounter{lips@count}{0}
\setcounter{section@level}{1}
}
