\relax 
\FN@pp@footnotehinttrue 
\FN@pp@footnotehinttrue 
\@writefile{toc}{\contentsline {chapter}{\numberline {1}Introduction}{1}{chapter.1}}
\@writefile{lof}{\addvspace {10\p@ }}
\@writefile{lot}{\addvspace {10\p@ }}
\@writefile{toc}{\contentsline {section}{\numberline {1.1}Background}{1}{section.1.1}}
\@writefile{toc}{\contentsline {section}{\numberline {1.2}Motivation}{1}{section.1.2}}
\@writefile{toc}{\contentsline {section}{\numberline {1.3}... Place ...}{1}{section.1.3}}
\@writefile{toc}{\contentsline {section}{\numberline {1.4}... Place ...}{1}{section.1.4}}
\FN@pp@footnotehinttrue 
\@setckpt{Introduction/introduction}{
\setcounter{page}{2}
\setcounter{equation}{0}
\setcounter{enumi}{1}
\setcounter{enumii}{0}
\setcounter{enumiii}{0}
\setcounter{enumiv}{0}
\setcounter{footnote}{0}
\setcounter{mpfootnote}{0}
\setcounter{part}{0}
\setcounter{chapter}{1}
\setcounter{section}{4}
\setcounter{subsection}{0}
\setcounter{subsubsection}{0}
\setcounter{paragraph}{0}
\setcounter{subparagraph}{0}
\setcounter{figure}{0}
\setcounter{table}{0}
\setcounter{pp@next@reset}{1}
\setcounter{@fnserial}{0}
\setcounter{NAT@ctr}{0}
\setcounter{LT@tables}{0}
\setcounter{LT@chunks}{0}
\setcounter{Item}{10}
\setcounter{Hfootnote}{0}
\setcounter{r@tfl@t}{0}
\setcounter{float@type}{4}
\setcounter{lips@count}{0}
\setcounter{section@level}{1}
}
